*** Life<FredkinCell> 7x6 ***

Generation = 0, Population = 19.
0-----
-00---
--00-0
000-00
0-0-0-
-0-00-
0----0

Generation = 1, Population = 18.
--0---
-1---0
001101
--10--
1-10--
0-01--
---0--

Generation = 2, Population = 23.
---0-0
-200-1
1122--
--21-0
2-210-
1--20-
0--10-

Generation = 3, Population = 22.
-0-1-1
--11-2
22-30-
--320-
3-----
-0-310
100--0

Generation = 4, Population = 26.
0-02-2
022203
33-4--
--43-0
--2--0
1104--
211--1

Generation = 5, Population = 18.
10--03
133---
------
0----1
3--101
-2-51-
-2--0-

Generation = 6, Population = 25.
---214
-44203
-32--1
10-3-2
4-2-1-
-3--2-
231-11

Generation = 7, Population = 22.
-0--2-
1-5314
-4-4--
----03
5--12-
1405--
342--2

Generation = 8, Population = 19.
----3-
--6425
--250-
10-3-4
6-----
251--0
-5--1-

Generation = 9, Population = 19.
--0-4-
-4-5-6
3----1
-1440-
-021--
-625--
-6-1--

Generation = 10, Population = 23.
---2--
--6-27
-42--2
--551-
61-2--
27362-
37221-

Generation = 11, Population = 21.
-----4
--753-
353-03
11-62-
----2-
3-4--0
-833-2

Generation = 12, Population = 20.
--02--
1----7
-6--14
--573-
-12-3-
-75--1
-944-3

Generation = 13, Population = 23.
101344
--75-8
------
-1--4-
6-324-
386--2
3-55-4

Generation = 14, Population = 22.
2-24--
1---39
-63514
----54
7-----
4-76-3
49-6-5

*** Life<FredkinCell> 3x12 ***

Generation = 0, Population = 14.
-0-000--0---
--0-00-0----
-0---0--0-00

Generation = 11, Population = 20.
-5-672136--1
--43--733-11
-45-----32-5

*** Life<FredkinCell> 5x2 ***

Generation = 0, Population = 9.
00
00
-0
00
00

*** Life<FredkinCell> 15x11 ***

Generation = 0, Population = 19.
-0------0--
-----------
-----------
--00-------
------00---
----0------
0-0---00---
-----0-----
--------0--
-----------
-------0-0-
------0----
------0----
------0----
--------0--

*** Life<FredkinCell> 7x5 ***

Generation = 0, Population = 7.
---0-
-000-
-----
-----
0----
--0--
0----

Generation = 1, Population = 16.
-0-10
01--0
-000-
0----
-00--
-0-0-
-00--

Generation = 2, Population = 15.
-1-2-
12-01
0--1-
-0-0-
--1--
0---0
0-1--

Generation = 3, Population = 18.
-2-3-
---12
100--
--010
0---0
10-0-
1--00

Generation = 4, Population = 17.
0--4-
1---3
2--1-
-----
1-101
21-10
2-1-1

Generation = 5, Population = 21.
120--
-2-1-
300--
--0-0
2021-
32--1
30-02

Generation = 6, Population = 19.
231--
1---3
41--0
-0-1-
-1321
43-12
---1-

Generation = 7, Population = 20.
--240
-2014
--0-1
--020
-2---
5-02-
3012-

Generation = 8, Population = 11.
---5-
13-25
-----
-----
--3-1
6---2
--2-2

Generation = 9, Population = 21.
2326-
24--6
41-11
--0-0
22--2
-3-2-
30--3

*** Life<FredkinCell> 8x12 ***

Generation = 0, Population = 20.
---0--------
-00--0------
00--0---0---
----0---00-0
0----0-----0
-0--------0-
--0---------
-------0-0--

Generation = 4, Population = 44.
-1--13-02--1
2-1---1--21-
20-0-2--2---
0---12--1--1
-0000--2----
--1---12-11-
-10-0-1-0---
-0-002--0130

Generation = 8, Population = 36.
--02-------2
----11-1---2
------2--1-2
2-1323-3-431
---01-1-----
-1--2-1-0--3
31-1----4-0-
--1--3-1-3--

*** Life<FredkinCell> 12x1 ***

Generation = 0, Population = 10.
0
0
0
0
-
-
0
0
0
0
0
0

*** Life<FredkinCell> 4x1 ***

Generation = 0, Population = 4.
0
0
0
0

*** Life<FredkinCell> 11x8 ***

Generation = 0, Population = 18.
--------
0--00-00
----0---
---0----
---0--0-
-----0--
-----0--
---0-00-
-----00-
-----0--
-0------

*** Life<FredkinCell> 10x9 ***

Generation = 0, Population = 19.
---0-0---
--0------
-------0-
-00-0--0-
-0-0-----
---00--00
-0-------
--------0
0-----0--
0--------

Generation = 9, Population = 42.
1105-2--0
4-3611-42
060--30-0
---3--4-6
---5--30-
12-3----3
1--2--1--
3-54---4-
----7----
-13110---

*** Life<FredkinCell> 1x7 ***

Generation = 0, Population = 7.
0000000

*** Life<FredkinCell> 4x2 ***

Generation = 0, Population = 3.
--
--
00
0-

*** Life<FredkinCell> 9x1 ***

Generation = 0, Population = 5.
0
0
-
0
-
-
0
0
-

Generation = 4, Population = 5.
-
2
-
0
3
1
-
-
1

Generation = 8, Population = 6.
4
-
-
-
4
3
1
4
3

Generation = 12, Population = 5.
4
4
-
4
-
-
1
4
-

*** Life<FredkinCell> 4x5 ***

Generation = 0, Population = 8.
0---0
-----
0-00-
0-0-0

Generation = 2, Population = 12.
0-01-
0-1-1
200--
2-2-0

Generation = 4, Population = 8.
--030
0-1-1
4---0
-----

*** Life<FredkinCell> 9x14 ***

Generation = 0, Population = 13.
---------0---0
--------------
-----------0--
---0----------
------0--0----
----------0---
---0----------
------0-------
-0---0---0--0-

*** Life<FredkinCell> 2x7 ***

Generation = 0, Population = 12.
0000000
000--00

Generation = 1, Population = 4.
-11--1-
-1-----

Generation = 2, Population = 8.
0-200-0
02---0-

Generation = 3, Population = 7.
113-11-
-3-0---

Generation = 4, Population = 10.
2240220
-40--0-

Generation = 5, Population = 6.
335--31
-----1-

Generation = 6, Population = 10.
4-602-2
040-02-

Generation = 7, Population = 5.
53---3-
---0-3-

Generation = 8, Population = 12.
6460242
040--40

Generation = 9, Population = 4.
-57--5-
-5-----

*** Life<FredkinCell> 5x5 ***

Generation = 0, Population = 9.
-00-0
---0-
-0---
0-0-0
--0--

Generation = 4, Population = 7.
----0
-----
----1
1-1-1
3-4--

Generation = 8, Population = 7.
----2
-----
----3
2-2-2
5-5--

*** Life<FredkinCell> 11x9 ***

Generation = 0, Population = 17.
-0-------
0--------
--00--0--
---0--0--
--------0
------00-
--0------
0--0-0---
-------0-
-------0-
--0------

Generation = 1, Population = 43.
--0------
--00--0--
001-0010-
---100100
---0-----
--0--011-
00---000-
-0----00-
0--0-0010
--0---010
-0-0---0-

Generation = 2, Population = 40.
-01---0--
0-11--1--
1----1---
00--11211
---1----0
0---0-2-0
1---0--10
0100-011-
-----1---
0--0-----
0-0-0--1-

Generation = 3, Population = 47.
-1---010-
10-20-20-
--10-2100
-10-22---
-00-00---
10--1--1-
--0-1-0--
---10----
-00-02-1-
10---0-1-
1--0-00-0

Generation = 4, Population = 49.
-210-12-0
2-1-1-31-
10----211
0-11-3-11
-1--1-00-
2-00----0
1--0-----
-1021-11-
--10---20
---0--02-
2-0---11-

Generation = 5, Population = 53.
-32102-0-
3-22-04-0
21100----
1-222--2-
0-01-01-0
301---2--
2-0---010
-21-2-2--
---1--031
1-0100-3-
-----0--0

Generation = 6, Population = 48.
-432--2--
4-33--51-
3-----211
-13------
-11-11-0-
4-2------
3--0101-1
-3-2---1-
00120--42
--12--040
2-00-11--

Generation = 7, Population = 51.
-54-023--
50--106--
4--0-2-22
---2232-1
--2-22--0
503---210
4-----21-
041-20-20
112-12-5-
--23---5-
-----2--0

Generation = 8, Population = 39.
--5--3-0-
--------0
5-11---3-
1---3-32-
0-31--1--
---01--2-
-0--1--21
15----231
-232-----
1--4--06-
--000-1--

Generation = 9, Population = 49.
-5-20----
5--3-0-1-
6-22---4-
-1-2----1
1-4-2220-
50---0-3-
-10-20-3-
26-22034-
1---1---2
--2--0-70
20111-2--

Generation = 10, Population = 53.
----1--0-
6---1--20
71330225-
1--3-332-
2--133---
--3-1-2-0
4210-12-1
--13-1---
2-3-22053
--3-0-08-
3-2-22--0

Generation = 11, Population = 45.
0--22331-
7-3----31
8--41336-
-----44-1
31--4-200
--4-2-3-1
5---2---2
--2-2-34-
---2-3164
-0------0
--3--3---

Generation = 12, Population = 50.
15-3-----
---3--642
91-5-44-2
-1-33-5-2
42-1533-1
------43-
-2-0-1--3
26-331--1
-2--2427-
1--4--0-1
---12-2-0

Generation = 13, Population = 54.
26-42-310
--3-1----
+---1556-
1--4-----
5---6-402
5---20-41
-3-122--4
37--42--2
2332-5384
--350--82
3-3-3-3-1

*** Life<FredkinCell> 12x15 ***

Generation = 0, Population = 14.
---------------
0-----0--------
----0----0-----
---------------
--0------------
0-----0--------
---------------
---------------
----0---0--0---
---------0---0-
---------------
--0--------0---

Generation = 9, Population = 71.
---0-2-04-0-000
-0--4--0-200--1
1-------12--2--
---0-----1---1-
---------110--0
-0-0---2----10-
--1-----11-0-00
1-200-----1----
304-2-02-0-0---
-2-10261-30----
-0--4---11-1-0-
-002---1--120--

*** Life<FredkinCell> 15x13 ***

Generation = 0, Population = 21.
--00---------
---------0---
------0------
---0-----0---
----------00-
0-0----------
-0-------0---
---0--0---0--
---0---------
-------0-----
----00-------
-0-----------
-------------
--------0----
-------------

Generation = 11, Population = 102.
4-5-2--23-2-2
-2433-240-1--
-245--1-----1
-432---20-332
---33-----1-4
1--2207-2-2--
--2-33-2-----
2-731-13-4-2-
3222----0-0--
3--2234-642--
5-4--2---0--1
-5---61-2--4-
0-01210220120
11-2-0-2---0-
00--322-0-100

*** Life<FredkinCell> 6x14 ***

Generation = 0, Population = 22.
----00--00-0-0
----0-0-----0-
-------0------
0-----0-000-0-
---------0-0-0
00----------0-

*** Life<FredkinCell> 5x15 ***

Generation = 0, Population = 8.
---------0-----
---0------0----
------0-------0
--0------------
0------0-------

*** Life<FredkinCell> 4x7 ***

Generation = 0, Population = 7.
--0----
--0--0-
00--0--
0------

Generation = 1, Population = 12.
-010-0-
0-10--0
-1-0---
1---0--

Generation = 2, Population = 9.
-12----
---10--
0-01--0
-----0-

Generation = 3, Population = 15.
023-0--
001-100
--1----
1-000--

Generation = 4, Population = 10.
-3--1-0
-12---1
-----00
----10-

Generation = 5, Population = 12.
04-0--1
0-311--
-11----
---02--

Generation = 6, Population = 15.
-531-0-
1--2201
-2-1---
-0-130-

Generation = 7, Population = 14.
-6--11-
-1-3-12
-3--0-0
11---10

Generation = 8, Population = 9.
073-2--
1------
--1----
2-0--2-

Generation = 9, Population = 12.
--4--1-
2---2--
-321-0-
--113-0

Generation = 10, Population = 10.
07-1--1
-----1-
-43----
---242-
