*** Life<ConwayCell> 7x4 ***

Generation = 0, Population = 17.
.***
**.*
..*.
***.
*.*.
*..*
**.*

*** Life<ConwayCell> 17x39 ***

Generation = 0, Population = 11.
.......................................
.......................................
......................................*
..........................*............
.................*.....................
.......................................
.......................................
.......................................
..........................*............
.*................................*....
.......................................
...............*.......................
.......................................
.......................................
*........*.............................
...................*.......*...........
.......................................

Generation = 7, Population = 0.
.......................................
.......................................
.......................................
.......................................
.......................................
.......................................
.......................................
.......................................
.......................................
.......................................
.......................................
.......................................
.......................................
.......................................
.......................................
.......................................
.......................................

Generation = 14, Population = 0.
.......................................
.......................................
.......................................
.......................................
.......................................
.......................................
.......................................
.......................................
.......................................
.......................................
.......................................
.......................................
.......................................
.......................................
.......................................
.......................................
.......................................

Generation = 21, Population = 0.
.......................................
.......................................
.......................................
.......................................
.......................................
.......................................
.......................................
.......................................
.......................................
.......................................
.......................................
.......................................
.......................................
.......................................
.......................................
.......................................
.......................................

Generation = 28, Population = 0.
.......................................
.......................................
.......................................
.......................................
.......................................
.......................................
.......................................
.......................................
.......................................
.......................................
.......................................
.......................................
.......................................
.......................................
.......................................
.......................................
.......................................

Generation = 35, Population = 0.
.......................................
.......................................
.......................................
.......................................
.......................................
.......................................
.......................................
.......................................
.......................................
.......................................
.......................................
.......................................
.......................................
.......................................
.......................................
.......................................
.......................................

*** Life<ConwayCell> 10x40 ***

Generation = 0, Population = 8.
.........*..............................
.....................*..................
............*...........................
........................................
....................*...................
........................................
..............*.........*...............
........................................
........................................
....................*.*.................

Generation = 15, Population = 0.
........................................
........................................
........................................
........................................
........................................
........................................
........................................
........................................
........................................
........................................

*** Life<ConwayCell> 26x16 ***

Generation = 0, Population = 30.
........*.*....*
*...........*...
................
................
.......*........
...............*
................
..*.............
.......*........
..*.*.........*.
..........*...*.
................
................
...*............
...............*
.....*..........
*...........*...
...*............
........*.....*.
................
........*.......
..*.............
....*...........
................
.*...........*..
.*....*........*

Generation = 6, Population = 0.
................
................
................
................
................
................
................
................
................
................
................
................
................
................
................
................
................
................
................
................
................
................
................
................
................
................

Generation = 12, Population = 0.
................
................
................
................
................
................
................
................
................
................
................
................
................
................
................
................
................
................
................
................
................
................
................
................
................
................

Generation = 18, Population = 0.
................
................
................
................
................
................
................
................
................
................
................
................
................
................
................
................
................
................
................
................
................
................
................
................
................
................

Generation = 24, Population = 0.
................
................
................
................
................
................
................
................
................
................
................
................
................
................
................
................
................
................
................
................
................
................
................
................
................
................

Generation = 30, Population = 0.
................
................
................
................
................
................
................
................
................
................
................
................
................
................
................
................
................
................
................
................
................
................
................
................
................
................

Generation = 36, Population = 0.
................
................
................
................
................
................
................
................
................
................
................
................
................
................
................
................
................
................
................
................
................
................
................
................
................
................

Generation = 42, Population = 0.
................
................
................
................
................
................
................
................
................
................
................
................
................
................
................
................
................
................
................
................
................
................
................
................
................
................

*** Life<ConwayCell> 36x4 ***

Generation = 0, Population = 15.
..*.
....
.*..
.*..
.*..
....
*..*
....
...*
....
.*..
....
....
....
....
....
....
....
....
....
....
.*..
....
....
*...
....
....
..**
*...
....
....
....
....
*...
...*
....

Generation = 4, Population = 3.
....
....
.*..
.*..
.*..
....
....
....
....
....
....
....
....
....
....
....
....
....
....
....
....
....
....
....
....
....
....
....
....
....
....
....
....
....
....
....

Generation = 8, Population = 3.
....
....
.*..
.*..
.*..
....
....
....
....
....
....
....
....
....
....
....
....
....
....
....
....
....
....
....
....
....
....
....
....
....
....
....
....
....
....
....

*** Life<ConwayCell> 7x30 ***

Generation = 0, Population = 24.
.....*.*.........*............
.....................*........
.......*........*....*........
.......*.....*...*.....*......
.............*...*............
...*....*.*.....**............
.***................**.*......

Generation = 7, Population = 16.
..............................
..............................
.................**...........
.................*.**.........
...................**.........
..**.............*.**.........
..**.............**...........

Generation = 14, Population = 20.
.................****.........
................*..**.........
................**...**.......
....................*..*......
.....................*.*......
..**..................*.......
..**..........................

Generation = 21, Population = 27.
..................****........
.................**..***......
................*..***..*.....
.................**.**...*....
.....................*..*.....
..**..................**......
..**..........................

Generation = 28, Population = 29.
...............**......*.*....
..............*...*.*.*...*...
...............**.*.*...*.....
...............***...*.*.*....
..................**.*........
..**................**........
..**..........................

*** Life<ConwayCell> 8x36 ***

Generation = 0, Population = 32.
*.....***.*.........................
.*....*..*....................*.....
...*....*...*.......*.......*.......
...*.*.......*.......*..............
*.*..*..............................
*.....*............*....*...........
.........................**...*.....
*....*...................*.*........

Generation = 15, Population = 54.
...*....................***.........
..***..................*.*.*........
.*****.................*.*.*........
.....................**.***.**......
....................*.**.*.**.*.....
...................**.*.....*.**....
.....**.............**.*...*.**.....
.....**..............***...***......

Generation = 30, Population = 57.
....................................
......................**...**.......
.....**...............***.***.......
...**.**.....**.*.......*.*.........
...**.**.....**..*.......*.......**.
...*..**....*....**...**.*.**.....*.
.....*.......**...*...**...**...**..
.............****...................

Generation = 45, Population = 62.
...*................................
..***...............................
.*****..............................
**...**......*....**........*.......
**...***....*.*..**....*....**...**.
**...**....*..........***..*..*.*.*.
.*****.....*..**.**.....*...**...*..
..***..........*.*..................

*** Life<ConwayCell> 12x15 ***

Generation = 0, Population = 15.
...*.*....*....
...............
.....*...*...**
..............*
.*.............
*..............
....*.......*..
...............
............*..
.........*.....
........*......
...............

Generation = 12, Population = 4.
...............
...............
.............**
.............**
...............
...............
...............
...............
...............
...............
...............
...............

Generation = 24, Population = 4.
...............
...............
.............**
.............**
...............
...............
...............
...............
...............
...............
...............
...............

*** Life<ConwayCell> 15x37 ***

Generation = 0, Population = 17.
....*................................
................*...*....*...........
........................*..*.........
.....................................
.......*..........*..................
...........................*........*
.....................................
...*.................................
....*........*.......................
.....................................
.....................................
....................*.............*..
.....................................
...............*...................*.
.....................................

Generation = 3, Population = 0.
.....................................
.....................................
.....................................
.....................................
.....................................
.....................................
.....................................
.....................................
.....................................
.....................................
.....................................
.....................................
.....................................
.....................................
.....................................

Generation = 6, Population = 0.
.....................................
.....................................
.....................................
.....................................
.....................................
.....................................
.....................................
.....................................
.....................................
.....................................
.....................................
.....................................
.....................................
.....................................
.....................................

Generation = 9, Population = 0.
.....................................
.....................................
.....................................
.....................................
.....................................
.....................................
.....................................
.....................................
.....................................
.....................................
.....................................
.....................................
.....................................
.....................................
.....................................

Generation = 12, Population = 0.
.....................................
.....................................
.....................................
.....................................
.....................................
.....................................
.....................................
.....................................
.....................................
.....................................
.....................................
.....................................
.....................................
.....................................
.....................................

Generation = 15, Population = 0.
.....................................
.....................................
.....................................
.....................................
.....................................
.....................................
.....................................
.....................................
.....................................
.....................................
.....................................
.....................................
.....................................
.....................................
.....................................

Generation = 18, Population = 0.
.....................................
.....................................
.....................................
.....................................
.....................................
.....................................
.....................................
.....................................
.....................................
.....................................
.....................................
.....................................
.....................................
.....................................
.....................................

Generation = 21, Population = 0.
.....................................
.....................................
.....................................
.....................................
.....................................
.....................................
.....................................
.....................................
.....................................
.....................................
.....................................
.....................................
.....................................
.....................................
.....................................

Generation = 24, Population = 0.
.....................................
.....................................
.....................................
.....................................
.....................................
.....................................
.....................................
.....................................
.....................................
.....................................
.....................................
.....................................
.....................................
.....................................
.....................................

*** Life<ConwayCell> 15x38 ***

Generation = 0, Population = 12.
...............*......................
...........*..........................
..................*...................
*...................................*.
..*.*.................................
......................................
......................................
................................*.....
......................................
......................................
.........................*............
......................................
......................................
...*...........*......................
.....................................*

Generation = 18, Population = 0.
......................................
......................................
......................................
......................................
......................................
......................................
......................................
......................................
......................................
......................................
......................................
......................................
......................................
......................................
......................................

*** Life<ConwayCell> 29x18 ***

Generation = 0, Population = 10.
..................
..................
.................*
...*..............
..................
..................
..............*...
..................
..................
................*.
..................
..................
..................
..................
..................
................*.
..................
..................
..................
..................
........*.........
..................
...........*.....*
..................
*.................
..................
..*...............
..................
..................

Generation = 15, Population = 0.
..................
..................
..................
..................
..................
..................
..................
..................
..................
..................
..................
..................
..................
..................
..................
..................
..................
..................
..................
..................
..................
..................
..................
..................
..................
..................
..................
..................
..................

Generation = 30, Population = 0.
..................
..................
..................
..................
..................
..................
..................
..................
..................
..................
..................
..................
..................
..................
..................
..................
..................
..................
..................
..................
..................
..................
..................
..................
..................
..................
..................
..................
..................

*** Life<ConwayCell> 15x23 ***

Generation = 0, Population = 2.
.......................
.......................
...*...................
.......................
.......................
.......................
....................*..
.......................
.......................
.......................
.......................
.......................
.......................
.......................
.......................

Generation = 9, Population = 0.
.......................
.......................
.......................
.......................
.......................
.......................
.......................
.......................
.......................
.......................
.......................
.......................
.......................
.......................
.......................

Generation = 18, Population = 0.
.......................
.......................
.......................
.......................
.......................
.......................
.......................
.......................
.......................
.......................
.......................
.......................
.......................
.......................
.......................

Generation = 27, Population = 0.
.......................
.......................
.......................
.......................
.......................
.......................
.......................
.......................
.......................
.......................
.......................
.......................
.......................
.......................
.......................

Generation = 36, Population = 0.
.......................
.......................
.......................
.......................
.......................
.......................
.......................
.......................
.......................
.......................
.......................
.......................
.......................
.......................
.......................

Generation = 45, Population = 0.
.......................
.......................
.......................
.......................
.......................
.......................
.......................
.......................
.......................
.......................
.......................
.......................
.......................
.......................
.......................

*** Life<ConwayCell> 26x15 ***

Generation = 0, Population = 1.
...............
...............
...............
...............
...............
...............
...............
.......*.......
...............
...............
...............
...............
...............
...............
...............
...............
...............
...............
...............
...............
...............
...............
...............
...............
...............
...............

Generation = 11, Population = 0.
...............
...............
...............
...............
...............
...............
...............
...............
...............
...............
...............
...............
...............
...............
...............
...............
...............
...............
...............
...............
...............
...............
...............
...............
...............
...............

Generation = 22, Population = 0.
...............
...............
...............
...............
...............
...............
...............
...............
...............
...............
...............
...............
...............
...............
...............
...............
...............
...............
...............
...............
...............
...............
...............
...............
...............
...............

Generation = 33, Population = 0.
...............
...............
...............
...............
...............
...............
...............
...............
...............
...............
...............
...............
...............
...............
...............
...............
...............
...............
...............
...............
...............
...............
...............
...............
...............
...............

*** Life<ConwayCell> 8x5 ***

Generation = 0, Population = 14.
...*.
..***
**..*
.....
.....
..***
***..
.*...

Generation = 8, Population = 6.
.....
.....
.....
.*...
*.*..
.....
***..
.....

*** Life<ConwayCell> 7x4 ***

Generation = 0, Population = 18.
.**.
.***
.*.*
.***
..**
***.
**.*

Generation = 17, Population = 3.
....
***.
....
....
....
....
....

*** Life<ConwayCell> 33x26 ***

Generation = 0, Population = 27.
..........................
.............*............
..........*...............
..........................
......*...................
.........*................
..........................
..........................
..........*...............
..........................
............*.............
........*.................
.......*...**.............
..........*.........*.....
....................*.....
..........................
..........................
....................*.....
..........................
...............*..........
.............*............
............*...........*.
......*..................*
.................*........
..........................
..........................
......................*...
.........*................
..........................
..........................
......................*...
......................*...
......*...............*...

Generation = 13, Population = 9.
..........................
..........................
..........................
..........................
..........................
..........................
..........................
..........................
..........................
..........................
...........*..............
..........*.*.............
..........*.*.............
...........*..............
..........................
..........................
..........................
..........................
..........................
..........................
..........................
..........................
..........................
..........................
..........................
..........................
..........................
..........................
..........................
..........................
..........................
.....................***..
..........................

Generation = 26, Population = 9.
..........................
..........................
..........................
..........................
..........................
..........................
..........................
..........................
..........................
..........................
...........*..............
..........*.*.............
..........*.*.............
...........*..............
..........................
..........................
..........................
..........................
..........................
..........................
..........................
..........................
..........................
..........................
..........................
..........................
..........................
..........................
..........................
..........................
......................*...
......................*...
......................*...

*** Life<ConwayCell> 37x4 ***

Generation = 0, Population = 15.
....
....
....
....
*...
..**
....
*...
..*.
....
*...
....
....
....
....
..*.
.*..
....
....
....
....
....
....
....
....
....
..*.
....
*.*.
....
*.*.
....
....
....
...*
....
...*

Generation = 5, Population = 0.
....
....
....
....
....
....
....
....
....
....
....
....
....
....
....
....
....
....
....
....
....
....
....
....
....
....
....
....
....
....
....
....
....
....
....
....
....

Generation = 10, Population = 0.
....
....
....
....
....
....
....
....
....
....
....
....
....
....
....
....
....
....
....
....
....
....
....
....
....
....
....
....
....
....
....
....
....
....
....
....
....

*** Life<ConwayCell> 36x13 ***

Generation = 0, Population = 18.
.............
.............
.............
.......*.....
....**.......
..*...*..*...
...*.........
............*
.............
...*.........
.............
.*...........
.............
.............
.............
.............
.............
.............
.............
.............
............*
.............
.............
...........*.
*............
.........*...
.............
.............
.............
.............
..*..........
.............
.............
.*.*.........
..*..........
.............

Generation = 5, Population = 2.
.............
.............
.............
.............
.............
....*........
....*........
.............
.............
.............
.............
.............
.............
.............
.............
.............
.............
.............
.............
.............
.............
.............
.............
.............
.............
.............
.............
.............
.............
.............
.............
.............
.............
.............
.............
.............

Generation = 10, Population = 0.
.............
.............
.............
.............
.............
.............
.............
.............
.............
.............
.............
.............
.............
.............
.............
.............
.............
.............
.............
.............
.............
.............
.............
.............
.............
.............
.............
.............
.............
.............
.............
.............
.............
.............
.............
.............

Generation = 15, Population = 0.
.............
.............
.............
.............
.............
.............
.............
.............
.............
.............
.............
.............
.............
.............
.............
.............
.............
.............
.............
.............
.............
.............
.............
.............
.............
.............
.............
.............
.............
.............
.............
.............
.............
.............
.............
.............

Generation = 20, Population = 0.
.............
.............
.............
.............
.............
.............
.............
.............
.............
.............
.............
.............
.............
.............
.............
.............
.............
.............
.............
.............
.............
.............
.............
.............
.............
.............
.............
.............
.............
.............
.............
.............
.............
.............
.............
.............

Generation = 25, Population = 0.
.............
.............
.............
.............
.............
.............
.............
.............
.............
.............
.............
.............
.............
.............
.............
.............
.............
.............
.............
.............
.............
.............
.............
.............
.............
.............
.............
.............
.............
.............
.............
.............
.............
.............
.............
.............

Generation = 30, Population = 0.
.............
.............
.............
.............
.............
.............
.............
.............
.............
.............
.............
.............
.............
.............
.............
.............
.............
.............
.............
.............
.............
.............
.............
.............
.............
.............
.............
.............
.............
.............
.............
.............
.............
.............
.............
.............

Generation = 35, Population = 0.
.............
.............
.............
.............
.............
.............
.............
.............
.............
.............
.............
.............
.............
.............
.............
.............
.............
.............
.............
.............
.............
.............
.............
.............
.............
.............
.............
.............
.............
.............
.............
.............
.............
.............
.............
.............

Generation = 40, Population = 0.
.............
.............
.............
.............
.............
.............
.............
.............
.............
.............
.............
.............
.............
.............
.............
.............
.............
.............
.............
.............
.............
.............
.............
.............
.............
.............
.............
.............
.............
.............
.............
.............
.............
.............
.............
.............

Generation = 45, Population = 0.
.............
.............
.............
.............
.............
.............
.............
.............
.............
.............
.............
.............
.............
.............
.............
.............
.............
.............
.............
.............
.............
.............
.............
.............
.............
.............
.............
.............
.............
.............
.............
.............
.............
.............
.............
.............

*** Life<ConwayCell> 30x36 ***

Generation = 0, Population = 9.
....................................
....................................
.*......*...........................
....................................
....................................
....................................
....................................
...............*....................
....................................
....................................
....................................
....................................
....................................
....................................
....................................
....................................
.................................*..
.*..........*.......................
....................................
....................................
....................*...............
....................................
....................................
....................................
....................................
...........................*........
.....*..............................
....................................
....................................
....................................

Generation = 6, Population = 0.
....................................
....................................
....................................
....................................
....................................
....................................
....................................
....................................
....................................
....................................
....................................
....................................
....................................
....................................
....................................
....................................
....................................
....................................
....................................
....................................
....................................
....................................
....................................
....................................
....................................
....................................
....................................
....................................
....................................
....................................

Generation = 12, Population = 0.
....................................
....................................
....................................
....................................
....................................
....................................
....................................
....................................
....................................
....................................
....................................
....................................
....................................
....................................
....................................
....................................
....................................
....................................
....................................
....................................
....................................
....................................
....................................
....................................
....................................
....................................
....................................
....................................
....................................
....................................

Generation = 18, Population = 0.
....................................
....................................
....................................
....................................
....................................
....................................
....................................
....................................
....................................
....................................
....................................
....................................
....................................
....................................
....................................
....................................
....................................
....................................
....................................
....................................
....................................
....................................
....................................
....................................
....................................
....................................
....................................
....................................
....................................
....................................

Generation = 24, Population = 0.
....................................
....................................
....................................
....................................
....................................
....................................
....................................
....................................
....................................
....................................
....................................
....................................
....................................
....................................
....................................
....................................
....................................
....................................
....................................
....................................
....................................
....................................
....................................
....................................
....................................
....................................
....................................
....................................
....................................
....................................

*** Life<ConwayCell> 35x26 ***

Generation = 0, Population = 7.
..........................
..........................
................*.........
..........................
..........................
..........................
..........................
...*......................
..*.......................
..........................
..........................
..........................
..........................
..........................
..........................
..........................
..........................
..........................
..........................
..........................
..........................
......................*...
..........................
..........................
..........................
..................*.......
..........................
..........................
..........................
..........................
..........................
..........................
...................*......
..........................
................*.........

*** Life<ConwayCell> 39x22 ***

Generation = 0, Population = 40.
.....................*
......................
......................
*.....................
........*...*.........
...*......*..........*
......................
........*.........*...
......................
..........*...........
.*....................
.*.................*..
......*...............
...*..................
......................
......................
......................
...*..................
....*.................
...*..................
......................
..............*.......
..............*..*....
.........*...*........
.........*............
.....................*
......................
...*..................
......*...............
......................
......................
.....................*
..*..............*....
....*.................
..*......*.........*..
..............*.......
.............*........
*.....................
.**................*..

Generation = 17, Population = 0.
......................
......................
......................
......................
......................
......................
......................
......................
......................
......................
......................
......................
......................
......................
......................
......................
......................
......................
......................
......................
......................
......................
......................
......................
......................
......................
......................
......................
......................
......................
......................
......................
......................
......................
......................
......................
......................
......................
......................

Generation = 34, Population = 0.
......................
......................
......................
......................
......................
......................
......................
......................
......................
......................
......................
......................
......................
......................
......................
......................
......................
......................
......................
......................
......................
......................
......................
......................
......................
......................
......................
......................
......................
......................
......................
......................
......................
......................
......................
......................
......................
......................
......................
