22

7 8
12
1 1
2 1
3 7
0 4
5 4
1 2
6 4
1 7
6 4
0 3
1 0
6 2
19 1

10 9
25
6 1
6 5
3 1
2 2
3 0
1 2
2 1
5 8
3 8
7 8
6 7
9 2
2 2
4 3
5 3
8 6
6 2
9 0
1 4
6 6
6 2
8 3
7 2
9 7
8 5
2 1

6 5
35
4 3
5 4
0 1
3 4
2 1
4 2
3 4
1 3
4 0
3 0
3 4
0 2
1 3
3 4
3 1
4 3
1 3
4 1
3 3
3 4
3 4
5 2
1 2
0 3
4 0
2 4
5 4
2 3
4 0
4 0
0 1
1 3
5 3
5 0
5 0
13 1

7 10
16
5 4
4 5
0 0
6 5
5 0
0 0
6 5
2 0
6 0
4 3
6 1
3 6
2 7
3 1
4 8
0 6
10 2

10 6
27
5 4
1 3
2 0
9 0
7 4
6 5
3 4
8 1
8 1
9 3
4 1
6 0
1 4
0 0
3 5
2 3
5 0
6 5
8 3
7 3
9 3
3 5
1 1
5 2
5 1
5 1
2 4
17 1

9 9
3
7 4
4 0
1 3
14 2

8 5
15
1 0
2 0
6 4
5 0
4 2
7 0
7 1
2 4
5 3
5 2
6 4
4 1
1 3
0 4
0 4
8 1

9 7
11
1 3
8 3
1 1
7 1
0 5
5 0
4 3
2 6
6 2
2 1
1 6
11 2

9 5
13
0 3
8 0
6 3
0 1
6 4
2 3
3 3
0 4
2 0
3 4
8 0
7 4
3 0
1 1

10 10
31
8 4
1 5
1 6
2 4
7 9
6 4
7 8
8 5
0 2
8 1
4 2
0 1
0 7
3 6
1 8
8 5
7 1
2 7
1 2
5 8
0 9
1 9
3 5
8 5
4 7
2 3
8 0
4 2
8 8
5 4
2 5
18 2

7 5
20
3 4
2 3
2 2
2 3
2 2
5 0
0 1
6 3
3 2
0 2
1 3
1 1
0 3
5 3
0 1
1 1
3 0
2 4
5 0
5 1
17 1

6 5
34
5 3
3 0
1 3
3 3
4 4
5 1
5 0
5 2
3 2
5 2
3 2
1 3
2 1
2 0
1 0
5 3
1 4
3 0
0 4
0 4
2 1
5 2
3 1
2 3
1 2
2 0
5 0
3 4
5 4
3 0
4 0
4 0
0 0
4 2
11 2

6 10
4
2 8
0 3
1 9
5 9
14 2

10 7
10
3 3
2 2
1 6
8 1
7 0
4 2
3 2
4 2
3 3
5 6
6 1

8 7
16
2 1
3 1
6 1
4 1
6 0
3 4
5 6
3 1
6 4
7 6
2 4
0 0
1 3
1 6
4 6
6 2
19 1

5 9
32
0 3
0 1
4 0
3 3
4 0
4 6
3 3
4 2
2 6
2 4
4 4
1 8
1 2
3 4
3 4
0 4
2 5
0 0
4 2
0 5
0 0
3 5
2 6
3 6
1 6
2 0
0 5
3 3
2 7
0 7
2 2
3 3
14 1

9 10
11
7 9
1 1
8 1
4 2
6 2
1 1
4 2
7 4
0 1
0 6
6 3
7 1

5 9
39
0 2
3 5
0 6
4 2
2 6
2 6
4 1
0 2
3 7
0 3
1 8
0 6
4 0
2 4
2 7
0 8
1 1
4 0
0 2
4 7
0 5
0 7
4 8
1 0
2 8
4 5
0 8
1 7
4 1
3 7
2 4
0 6
1 1
0 2
1 2
4 8
4 5
3 3
2 6
4 1

9 8
4
0 3
3 2
8 1
8 0
2 1

10 5
19
9 1
9 0
8 0
0 3
1 2
3 4
1 3
6 3
1 4
2 0
8 3
2 4
4 1
6 0
0 4
6 4
0 4
2 3
3 0
10 1

5 6
21
4 5
3 5
0 0
3 3
4 2
4 2
4 5
1 0
2 0
2 2
3 4
2 1
0 0
0 4
3 3
4 2
4 3
0 1
1 1
0 3
4 4
14 1

6 10
15
1 0
3 1
0 2
2 1
2 7
1 1
4 7
0 0
1 7
2 2
0 1
1 0
3 8
3 6
0 2
10 1
