22

8 7
19
7 3
7 1
6 1
7 0
1 3
5 2
5 3
0 4
4 2
7 4
5 0
7 5
5 2
6 2
0 6
4 0
1 2
7 3
0 4
9 1

8 9
25
0 4
7 2
6 1
0 1
3 2
0 4
0 5
2 1
7 8
7 0
0 3
2 0
0 4
6 6
0 2
1 4
0 6
2 2
3 0
5 2
1 4
7 0
3 7
2 0
1 3
13 2

5 7
24
3 6
1 3
1 5
0 0
4 3
4 1
4 5
2 1
2 2
0 1
1 4
2 6
4 0
0 2
0 4
4 5
4 5
3 3
3 4
3 4
0 4
0 5
3 4
1 4
20 4

5 6
24
3 0
4 3
2 2
1 3
1 1
4 3
4 1
3 1
3 4
4 4
2 5
0 5
3 0
1 1
1 5
2 5
0 1
3 5
4 0
3 0
1 3
4 4
1 2
4 4
14 1

9 6
23
1 1
0 2
6 3
3 4
6 5
3 2
1 5
8 4
1 3
8 0
6 0
7 1
2 3
4 1
1 0
0 0
8 0
8 2
8 2
6 1
8 5
2 3
7 0
17 2

7 9
21
1 7
6 6
6 1
1 4
6 8
2 0
0 4
4 0
3 2
5 6
4 8
2 0
5 3
5 1
1 3
6 5
0 0
4 6
2 8
0 7
3 2
6 2

7 9
22
5 1
2 1
1 5
0 6
6 4
2 8
4 8
5 8
6 5
3 7
1 1
2 0
4 5
4 5
3 1
1 4
3 7
0 4
6 5
4 4
0 6
0 5
10 1

8 7
17
4 3
3 1
1 5
7 6
4 0
4 4
3 1
3 5
7 5
5 0
4 6
7 0
4 5
0 1
4 5
1 6
0 0
8 1

8 10
23
4 5
1 2
7 2
6 3
0 5
3 2
5 0
7 2
3 8
7 5
4 3
3 5
5 6
4 0
2 9
7 1
5 2
2 2
6 1
7 2
5 5
1 7
3 4
5 4

9 7
23
6 4
1 1
8 6
2 6
7 4
3 6
3 4
3 3
1 5
5 3
6 0
1 2
4 3
8 6
4 5
5 5
1 2
0 1
3 4
5 1
6 5
6 4
5 2
11 2

10 9
21
3 2
9 6
3 4
0 2
7 4
2 8
9 7
2 7
4 0
2 4
5 8
1 6
9 8
1 3
3 5
2 6
5 4
1 2
9 6
4 4
7 3
18 1

8 9
18
1 4
7 0
5 5
0 6
4 0
7 8
6 6
1 8
6 6
3 0
3 0
1 5
2 2
0 2
1 3
7 2
3 3
5 2
19 4

8 8
24
0 0
3 4
1 2
4 7
6 2
1 6
6 7
2 1
7 0
1 3
1 2
0 1
0 2
4 7
1 1
6 4
4 1
6 4
1 1
4 5
0 3
0 5
7 1
6 6
10 4

8 6
17
1 2
6 4
1 0
1 3
5 1
4 4
5 1
4 2
6 5
5 4
5 4
5 1
0 1
3 1
4 5
6 2
7 2
20 4

6 5
25
3 4
1 4
4 2
0 4
4 3
1 2
5 4
2 3
4 3
5 4
5 1
2 2
2 4
3 4
4 3
4 2
4 0
5 3
4 2
1 3
5 1
4 1
2 1
3 0
3 3
16 2

7 8
23
4 1
0 1
4 1
3 7
0 6
6 1
2 5
3 4
1 4
3 1
3 6
0 6
2 3
0 3
1 0
4 2
2 6
2 7
3 7
4 0
0 4
5 4
2 7
14 4

8 7
23
4 2
1 5
0 1
5 1
0 5
0 0
2 6
2 2
6 4
4 1
2 1
1 0
1 0
7 1
1 3
3 5
3 1
3 2
7 5
4 1
0 4
7 3
7 6
7 1

5 10
18
4 2
3 7
3 2
0 5
3 3
3 7
2 9
4 8
1 3
0 7
2 6
4 2
2 8
4 7
2 9
2 2
0 0
4 9
9 1

6 8
24
5 1
5 6
0 4
3 4
1 1
4 4
5 1
2 5
4 4
5 4
5 0
2 1
0 0
2 0
5 3
3 7
2 0
5 1
2 7
5 0
3 7
4 3
5 4
5 1
13 2

9 8
16
1 5
8 6
4 1
6 2
4 4
6 4
6 0
3 5
2 1
3 4
6 7
8 5
5 4
0 0
1 0
3 1
8 4

8 6
20
3 3
1 0
4 4
4 5
1 3
5 1
1 2
0 3
0 4
4 0
6 2
6 5
2 5
2 4
4 1
7 1
0 3
1 4
5 0
6 3
15 1

6 6
25
3 3
3 2
4 2
5 5
3 1
0 4
4 1
5 1
1 1
5 4
5 2
4 1
5 0
1 5
5 0
0 5
1 3
2 1
3 1
2 0
5 0
0 4
1 5
0 4
5 5
14 3
