22

24 44
10
14 28
23 0
2 0
1 16
18 1
10 25
22 0
15 9
16 2
16 12
322 181

46 7
27
5 5
13 4
40 2
0 3
36 1
19 2
36 1
10 2
43 3
45 0
11 3
2 5
20 0
26 6
3 5
22 0
3 0
2 2
13 5
23 2
7 6
30 0
9 0
15 2
5 1
37 6
10 5
351 134

11 14
18
9 3
0 3
4 11
4 1
9 0
8 13
9 6
0 2
8 8
3 11
4 13
6 1
7 13
10 2
5 6
0 7
1 13
4 13
167 121

7 14
20
0 3
5 0
5 9
4 13
4 12
1 5
0 0
0 2
0 12
6 4
4 6
0 3
6 11
1 0
5 9
2 13
3 8
1 1
2 11
2 12
269 174

42 39
8
22 12
24 14
33 30
29 36
4 24
7 28
34 23
12 17
357 179

25 32
25
24 5
15 7
13 0
24 1
21 11
19 12
22 23
14 16
7 2
15 9
22 5
3 25
10 23
20 10
14 3
11 24
18 25
2 9
5 2
8 15
9 0
2 9
12 19
7 14
23 15
248 197

1 31
14
0 19
0 18
0 25
0 7
0 19
0 4
0 26
0 5
0 5
0 9
0 8
0 5
0 26
0 7
220 159

23 25
23
16 9
3 2
12 17
14 11
8 19
2 0
5 11
5 15
9 24
17 18
14 1
17 23
15 12
9 11
1 3
20 22
4 7
20 7
4 18
6 22
4 6
5 12
1 2
226 63

49 1
29
31 0
9 0
5 0
9 0
22 0
15 0
6 0
36 0
4 0
19 0
35 0
18 0
18 0
1 0
6 0
11 0
35 0
23 0
44 0
10 0
26 0
39 0
39 0
16 0
43 0
45 0
27 0
48 0
25 0
223 22

17 9
15
11 4
11 0
2 7
10 7
4 5
11 3
3 1
12 5
15 8
7 1
10 0
1 2
6 6
5 5
14 0
237 55

30 46
14
24 34
15 1
25 32
7 7
17 39
26 42
5 25
17 23
15 1
3 32
6 34
28 18
29 25
8 14
294 170

9 12
27
2 4
4 6
0 7
6 4
1 11
4 9
0 9
5 2
8 6
2 3
0 3
4 5
6 3
2 2
7 0
7 7
0 3
6 5
6 4
4 0
4 3
1 5
2 1
8 1
3 6
6 6
7 10
201 132

41 34
24
25 9
19 20
9 23
34 8
16 9
26 13
34 9
2 25
23 30
1 17
10 29
21 9
32 1
2 14
5 20
38 4
0 15
29 14
29 5
19 3
0 30
36 28
3 3
12 22
170 9

44 28
21
23 16
18 13
23 8
31 24
20 9
33 19
40 15
15 7
11 9
22 16
11 18
40 19
15 3
33 13
13 25
24 19
43 25
8 19
3 4
5 2
7 23
386 85

8 25
14
5 18
7 17
4 21
3 15
5 4
7 2
6 18
1 14
7 18
3 16
5 3
6 5
3 1
1 11
135 8

39 37
20
3 2
18 6
6 2
16 2
0 11
34 24
20 14
24 33
25 33
25 5
25 30
19 0
25 25
30 4
26 15
33 28
11 1
24 18
23 26
29 32
298 168

3 1
33
1 0
0 0
2 0
0 0
2 0
1 0
1 0
2 0
1 0
0 0
0 0
2 0
2 0
2 0
2 0
1 0
1 0
0 0
2 0
0 0
2 0
1 0
0 0
2 0
2 0
2 0
0 0
2 0
0 0
1 0
1 0
2 0
2 0
1 136

42 26
22
24 11
7 17
31 18
2 7
0 7
17 14
7 0
3 24
0 0
9 21
21 10
29 11
1 20
26 25
35 0
38 24
34 1
36 17
33 18
39 19
9 4
9 2
122 13

47 30
22
23 17
26 17
22 26
5 22
28 11
17 10
36 18
28 26
46 25
46 22
32 3
15 19
34 25
27 8
44 15
28 15
6 21
0 20
21 0
46 8
16 28
21 27
7 94

11 7
7
7 4
9 3
2 4
6 3
4 5
4 0
1 2
115 149

5 31
14
4 28
3 28
1 21
0 21
0 4
2 12
4 20
4 5
0 0
2 5
0 13
3 3
1 30
0 24
28 179

28 14
25
18 1
19 2
13 1
9 6
4 3
7 2
27 3
9 11
7 0
27 6
10 9
0 11
25 4
8 1
6 8
6 12
25 9
3 8
8 11
24 12
20 5
6 0
25 4
16 3
23 4
282 129
