21

29 4
29
19 3
27 3
17 2
20 2
21 1
24 0
9 2
5 3
15 0
11 0
11 3
15 1
15 1
18 3
15 0
1 2
26 1
18 1
25 1
11 2
25 1
4 3
4 2
6 0
9 0
14 2
1 3
26 1
6 3
163 48

9 15
30
0 12
5 8
5 0
7 9
3 7
6 10
2 6
2 8
1 11
0 14
4 0
5 8
8 6
7 0
4 7
2 3
8 7
3 9
8 7
8 7
1 2
2 7
4 11
2 0
6 3
2 9
8 6
3 12
4 3
5 7
197 77

20 13
20
0 5
5 3
11 1
3 4
15 4
15 12
1 9
16 2
3 9
5 0
17 7
9 6
7 1
14 2
15 3
10 5
7 8
4 7
2 9
5 7
250 92

4 1
17
2 0
3 0
2 0
1 0
2 0
2 0
2 0
0 0
1 0
0 0
1 0
3 0
0 0
3 0
3 0
3 0
2 0
237 15

36 26
31
27 0
33 3
9 20
16 12
12 23
7 2
25 0
7 2
25 11
4 8
7 20
4 7
26 21
19 20
9 14
23 15
15 10
5 12
30 16
35 6
10 16
26 14
21 17
9 17
23 14
17 10
31 5
12 25
11 14
3 7
24 20
256 49

15 45
33
3 29
14 23
1 30
2 29
3 9
1 30
1 33
13 41
0 7
1 7
7 42
4 7
3 41
12 25
3 29
9 28
2 29
8 14
0 34
2 40
10 18
1 36
0 2
1 17
0 13
4 24
14 21
13 39
8 15
1 5
9 1
2 20
1 40
68 118

50 21
23
24 1
13 6
0 6
35 6
33 9
41 4
5 7
33 7
0 11
19 18
12 18
18 11
1 0
0 19
28 12
30 5
36 1
15 17
13 19
13 20
26 14
25 19
35 14
168 172

41 32
9
19 24
23 13
19 10
1 3
0 21
33 21
17 10
28 7
23 10
187 161

14 44
29
3 35
0 6
6 23
0 36
9 26
2 22
0 14
13 14
0 36
12 19
11 43
2 33
0 10
13 5
2 40
10 0
11 7
7 10
0 3
7 13
9 28
2 30
6 40
9 4
11 17
4 29
2 14
6 37
0 6
22 107

12 12
6
7 8
1 4
10 5
11 9
10 3
11 6
284 80

2 37
13
0 2
1 7
0 4
0 17
1 19
1 32
1 29
1 22
1 18
0 23
1 6
1 15
1 2
321 138

30 19
35
1 3
16 12
20 13
7 0
15 2
1 4
14 12
23 12
19 1
7 17
3 5
27 18
29 15
6 17
11 8
20 6
28 5
17 12
1 14
0 6
13 7
5 5
3 14
14 9
13 11
15 17
2 0
14 4
7 13
15 5
16 11
12 13
17 1
8 14
2 15
25 164

44 29
27
5 5
34 23
43 2
17 20
33 12
26 8
18 1
42 13
19 6
4 26
8 13
14 6
9 20
0 13
25 8
13 12
5 2
1 16
39 14
14 14
22 24
38 2
34 17
27 17
21 5
30 17
5 19
259 17

18 5
29
11 0
10 1
15 3
2 0
13 1
13 1
12 0
13 3
0 0
12 0
11 0
12 3
1 2
6 2
6 2
9 3
10 2
9 3
10 4
11 3
9 0
13 1
2 2
1 4
6 4
10 0
12 0
9 4
2 4
316 45

30 13
5
24 3
5 10
8 0
25 4
0 5
20 169

3 48
15
2 7
2 44
2 23
2 25
1 10
2 18
2 25
0 4
0 20
0 33
2 28
1 47
1 45
0 28
0 36
275 96

41 26
18
25 2
25 2
40 11
22 7
40 15
15 24
2 15
34 15
2 22
10 5
30 22
11 19
16 3
17 23
7 10
20 4
11 10
27 25
390 98

37 12
11
25 3
31 8
9 3
15 11
30 6
25 6
13 5
22 4
4 3
2 3
8 2
28 186

40 8
15
15 0
25 1
25 3
11 1
37 7
10 6
7 2
25 6
5 4
4 5
6 3
13 2
11 6
39 0
34 0
18 60

34 15
9
25 9
8 1
21 9
4 2
26 9
7 2
1 12
31 13
33 14
275 81

7 14
26
6 5
3 5
4 4
0 6
6 7
6 6
4 13
5 0
5 1
3 11
3 6
2 5
1 8
6 12
6 1
4 6
5 12
6 2
3 4
2 3
4 4
3 3
5 2
1 12
2 5
4 9
116 107
